<?xml version="1.0" encoding="utf-8"?>
<!DOCTYPE svg PUBLIC "-//W3C//DTD SVG 1.0//EN" "http://www.w3.org/TR/2001/REC-SVG-20010904/DTD/svg10.dtd">
<svg version="1.0" id="Layer_1" xmlns="http://www.w3.org/2000/svg" xmlns:xlink="http://www.w3.org/1999/xlink" 
	 width="800px" height="800px" viewBox="0 0 64 64" enable-background="new 0 0 64 64" xml:space="preserve">
<g>
	<path fill="#231F20" d="M22,29c-1.657,0-3,1.343-3,3v2c0,1.657,1.343,3,3,3s3-1.343,3-3v-2C25,30.343,23.657,29,22,29z"/>
	<path fill="#231F20" d="M22,23c-6.627,0-12,5.373-12,12c0,3.072,1.165,5.867,3.064,7.989C14.343,41.326,17.014,39,22,39
		c-2.762,0-5-2.238-5-5v-2c0-2.762,2.238-5,5-5s5,2.238,5,5v2c0,2.762-2.238,5-5,5c4.986,0,7.657,2.326,8.936,3.989
		C32.835,40.867,34,38.072,34,35C34,28.373,28.627,23,22,23z"/>
	<path fill="#231F20" d="M22,41c-4.361,0-6.543,2.08-7.479,3.374C16.572,46.014,19.169,47,22,47s5.428-0.986,7.48-2.626
		C28.545,43.082,26.363,41,22,41z"/>
	<path fill="#231F20" d="M60,11h-8V6c0-0.553-0.447-1-1-1h-6c-0.553,0-1,0.447-1,1v5H20V6c0-0.553-0.447-1-1-1h-6
		c-0.553,0-1,0.447-1,1v5H4c-2.211,0-4,1.789-4,4v40c0,2.211,1.789,4,4,4h56c2.211,0,4-1.789,4-4V15C64,12.789,62.211,11,60,11z
		 M46,7h4v8h-4V7z M41,25h6c0.553,0,1,0.447,1,1s-0.447,1-1,1h-6c-0.553,0-1-0.447-1-1S40.447,25,41,25z M14,7h4v8h-4V7z M22,49
		c-7.731,0-14-6.269-14-14s6.269-14,14-14s14,6.269,14,14S29.731,49,22,49z M55,45H41c-0.553,0-1-0.447-1-1s0.447-1,1-1h14
		c0.553,0,1,0.447,1,1S55.553,45,55,45z M40,38c0-0.553,0.447-1,1-1h10c0.553,0,1,0.447,1,1s-0.447,1-1,1H41
		C40.447,39,40,38.553,40,38z M55,33H41c-0.553,0-1-0.447-1-1s0.447-1,1-1h14c0.553,0,1,0.447,1,1S55.553,33,55,33z"/>
</g>
</svg>